6 Communicating Association Between Variables – DATA 3230 - Data Visualization
…
For example, in the ggplot2::diamonds dataset, we have information about the characteristics of over 50,000 round cut diamonds including quality of the cut (cut) and the quality of the color (color). Both of these variables are categorical variables as they include qualitative ratings.

Suppose I’m interested in understanding what the relationship between cut and color may be! As always, we must first start with a little data wrangling to ensure our data are in the right format.

In this case, I’m going to essentially be creating a cross-tabular table, where I count the frequency of each cell combination. Let me show you what I mean by that using the below code:

diamonds_df <- ggplot2::diamonds |>
  group_by(cut,color) |>
  count()

diamonds_df |>
  slice_head(n=8)

# A tibble: 35 × 3
# Groups:   cut, color [35]
   cut   color     n
   <ord> <ord> <int>
 1 Fair  D       163
 2 Fair  E       224
 3 Fair  F       312
 4 Fair  G       314
 5 Fair  H       303
 6 Fair  I       175
 7 Fair  J       119
 8 Good  D       662
 9 Good  E       933
10 Good  F       909
# ℹ 25 more rows
…
